{
  "code": "success",
  "msg": "Request successfully processed!",
  "pageNumber": 97,
  "pageSize": 100,
  "totalRecords": 9624,
  "totalPages": 97,
  "results": [
    {
      "couponTitle": "get your first LOOKFANTASTIC THE BOX: Limited edition beauty box for 291 KC with a 1 month subscription, with your affiliate code",
      "jumpUrl": "https://www.rewardany.com/store/lookfantastic-com?couponId=637387&pubId=10427&subId={your tracking code}",
      "type": "sale",
      "couponCode": null,
      "tier": 5,
      "startDateGMT": "2023-06-27 00:00:00",
      "endDateGMT": "2023-12-31 00:00:00",
      "storeId": 195128,
      "storeName": "LOOKFANTASTIC International",
      "logoImg": "https://gstatic.rewardany.com/web/storelogo/lookfantastic-com-1700725164.png",
      "categories": [
        "Health & Beauty"
      ]
    },
    {
      "couponTitle": "get your first LOOKFANTASTIC THE BOX: Limited edition beauty box for 55.60 RON with a 1 month subscription, with your affiliate code",
      "jumpUrl": "https://www.rewardany.com/store/lookfantastic-com?couponId=637388&pubId=10427&subId={your tracking code}",
      "type": "sale",
      "couponCode": null,
      "tier": 5,
      "startDateGMT": "2023-06-27 00:00:00",
      "endDateGMT": "2023-12-31 00:00:00",
      "storeId": 195128,
      "storeName": "LOOKFANTASTIC International",
      "logoImg": "https://gstatic.rewardany.com/web/storelogo/lookfantastic-com-1700725164.png",
      "categories": [
        "Health & Beauty"
      ]
    },
    {
      "couponTitle": "spend 40 Euros get 20% off and spend 60 Euros get 25% off with code SAVELF",
      "jumpUrl": "https://www.rewardany.com/store/lookfantastic-com?couponId=637389&pubId=10427&subId={your tracking code}",
      "type": "sale",
      "couponCode": null,
      "tier": 5,
      "startDateGMT": "2023-06-27 00:00:00",
      "endDateGMT": "2023-12-31 00:00:00",
      "storeId": 195128,
      "storeName": "LOOKFANTASTIC International",
      "logoImg": "https://gstatic.rewardany.com/web/storelogo/lookfantastic-com-1700725164.png",
      "categories": [
        "Health & Beauty"
      ]
    },
    {
      "couponTitle": "10% off advent calendars Code: 10XMAS",
      "jumpUrl": "https://www.rewardany.com/store/lookfantastic-com?couponId=637400&pubId=10427&subId={your tracking code}",
      "type": "sale",
      "couponCode": null,
      "tier": 5,
      "startDateGMT": "2023-11-15 00:00:00",
      "endDateGMT": "2023-12-31 00:00:00",
      "storeId": 195128,
      "storeName": "LOOKFANTASTIC International",
      "logoImg": "https://gstatic.rewardany.com/web/storelogo/lookfantastic-com-1700725164.png",
      "categories": [
        "Health & Beauty"
      ]
    },
    {
      "couponTitle": "Frist Monthly Beauty Box for just 56 PLN with a 1 month subscription Code: FANTASTICLF",
      "jumpUrl": "https://www.rewardany.com/store/lookfantastic-com?couponId=637402&pubId=10427&subId={your tracking code}",
      "type": "sale",
      "couponCode": null,
      "tier": 5,
      "startDateGMT": "2023-11-15 00:00:00",
      "endDateGMT": "2023-12-31 00:00:00",
      "storeId": 195128,
      "storeName": "LOOKFANTASTIC International",
      "logoImg": "https://gstatic.rewardany.com/web/storelogo/lookfantastic-com-1700725164.png",
      "categories": [
        "Health & Beauty"
      ]
    },
    {
      "couponTitle": "Get 20-23% off By Terry at LOOKFANTASTIC",
      "jumpUrl": "https://www.rewardany.com/store/lookfantastic-com?couponId=663170&pubId=10427&subId={your tracking code}",
      "type": "sale",
      "couponCode": null,
      "tier": 5,
      "startDateGMT": "2023-12-04 00:00:00",
      "endDateGMT": "2023-12-31 00:00:00",
      "storeId": 195128,
      "storeName": "LOOKFANTASTIC International",
      "logoImg": "https://gstatic.rewardany.com/web/storelogo/lookfantastic-com-1700725164.png",
      "categories": [
        "Health & Beauty"
      ]
    },
    {
      "couponTitle": "GET 10 Euros Off the LF Cracker WITH CODE JINGLE10",
      "jumpUrl": "https://www.rewardany.com/store/lookfantastic-com?couponId=663172&pubId=10427&subId={your tracking code}",
      "type": "sale",
      "couponCode": null,
      "tier": 5,
      "startDateGMT": "2023-12-04 00:00:00",
      "endDateGMT": "2023-12-31 00:00:00",
      "storeId": 195128,
      "storeName": "LOOKFANTASTIC International",
      "logoImg": "https://gstatic.rewardany.com/web/storelogo/lookfantastic-com-1700725164.png",
      "categories": [
        "Health & Beauty"
      ]
    },
    {
      "couponTitle": "GET 10 Euros Off the Xmas Eve Edit WITH CODE JINGLE10",
      "jumpUrl": "https://www.rewardany.com/store/lookfantastic-com?couponId=663173&pubId=10427&subId={your tracking code}",
      "type": "sale",
      "couponCode": null,
      "tier": 5,
      "startDateGMT": "2023-12-04 00:00:00",
      "endDateGMT": "2023-12-31 00:00:00",
      "storeId": 195128,
      "storeName": "LOOKFANTASTIC International",
      "logoImg": "https://gstatic.rewardany.com/web/storelogo/lookfantastic-com-1700725164.png",
      "categories": [
        "Health & Beauty"
      ]
    },
    {
      "couponTitle": "Get 5 Euros off The LOOKFANTASTIC BEAUTY ESSENTIALS EDIT with your code or code FANTASTICLF",
      "jumpUrl": "https://www.rewardany.com/store/lookfantastic-com?couponId=663175&pubId=10427&subId={your tracking code}",
      "type": "sale",
      "couponCode": null,
      "tier": 5,
      "startDateGMT": "2023-12-04 00:00:00",
      "endDateGMT": "2023-12-24 00:00:00",
      "storeId": 195128,
      "storeName": "LOOKFANTASTIC International",
      "logoImg": "https://gstatic.rewardany.com/web/storelogo/lookfantastic-com-1700725164.png",
      "categories": [
        "Health & Beauty"
      ]
    },
    {
      "couponTitle": "Get 10 Euros off The LOOKFANTASTIC TREAT YOURSELF EDIT with your code or code FANTASTICLF",
      "jumpUrl": "https://www.rewardany.com/store/lookfantastic-com?couponId=698404&pubId=10427&subId={your tracking code}",
      "type": "sale",
      "couponCode": null,
      "tier": 5,
      "startDateGMT": "2023-12-11 00:00:00",
      "endDateGMT": "2023-12-24 00:00:00",
      "storeId": 195128,
      "storeName": "LOOKFANTASTIC International",
      "logoImg": "https://gstatic.rewardany.com/web/storelogo/lookfantastic-com-1700725164.png",
      "categories": [
        "Health & Beauty"
      ]
    },
    {
      "couponTitle": "Shop at PowerAbs.shop today!",
      "jumpUrl": "https://www.rewardany.com/store/powerabs-shop?couponId=637414&pubId=10427&subId={your tracking code}",
      "type": "sale",
      "couponCode": null,
      "tier": 5,
      "startDateGMT": "2023-11-08 00:00:00",
      "endDateGMT": "2025-11-08 00:00:00",
      "storeId": 195129,
      "storeName": "PowerAbs US",
      "logoImg": "https://gstatic.rewardany.com/web/storelogo/powerabs-shop-1700728326.png",
      "categories": [
        "Digital Services & Streaming",
        "Sports, Outdoors & Fitness"
      ]
    },
    {
      "couponTitle": "New Year, New You Transformation Challenge - Earn Big!",
      "jumpUrl": "https://www.rewardany.com/store/powerabs-shop?couponId=736635&pubId=10427&subId={your tracking code}",
      "type": "sale",
      "couponCode": null,
      "tier": 5,
      "startDateGMT": "2023-12-18 00:00:00",
      "endDateGMT": "2024-01-01 00:00:00",
      "storeId": 195129,
      "storeName": "PowerAbs US",
      "logoImg": "https://gstatic.rewardany.com/web/storelogo/powerabs-shop-1700728326.png",
      "categories": [
        "Digital Services & Streaming",
        "Sports, Outdoors & Fitness"
      ]
    },
    {
      "couponTitle": "NFD Gift Cards from $15",
      "jumpUrl": "https://www.rewardany.com/store/neverfullydressed-com?couponId=637415&pubId=10427&subId={your tracking code}",
      "type": "sale",
      "couponCode": null,
      "tier": 5,
      "startDateGMT": "2023-01-03 00:00:00",
      "endDateGMT": "2023-12-31 00:00:00",
      "storeId": 195677,
      "storeName": "Never Fully Dressed US",
      "logoImg": "https://gstatic.rewardany.com/web/storelogo/neverfullydressed-com-1700816674.jpg",
      "categories": [
        "Clothing"
      ]
    },
    {
      "couponTitle": "e-Vouchers from $15",
      "jumpUrl": "https://www.rewardany.com/store/neverfullydressed-com?couponId=637416&pubId=10427&subId={your tracking code}",
      "type": "sale",
      "couponCode": null,
      "tier": 5,
      "startDateGMT": "2023-01-03 00:00:00",
      "endDateGMT": "2023-12-31 00:00:00",
      "storeId": 195677,
      "storeName": "Never Fully Dressed US",
      "logoImg": "https://gstatic.rewardany.com/web/storelogo/neverfullydressed-com-1700816674.jpg",
      "categories": [
        "Clothing"
      ]
    },
    {
      "couponTitle": "Shop Sustainable Fashion",
      "jumpUrl": "https://www.rewardany.com/store/neverfullydressed-com?couponId=637417&pubId=10427&subId={your tracking code}",
      "type": "sale",
      "couponCode": null,
      "tier": 5,
      "startDateGMT": "2023-01-03 00:00:00",
      "endDateGMT": "2023-12-31 00:00:00",
      "storeId": 195677,
      "storeName": "Never Fully Dressed US",
      "logoImg": "https://gstatic.rewardany.com/web/storelogo/neverfullydressed-com-1700816674.jpg",
      "categories": [
        "Clothing"
      ]
    },
    {
      "couponTitle": "Shop NFD Pre-Loved",
      "jumpUrl": "https://www.rewardany.com/store/neverfullydressed-com?couponId=637418&pubId=10427&subId={your tracking code}",
      "type": "sale",
      "couponCode": null,
      "tier": 5,
      "startDateGMT": "2023-01-03 00:00:00",
      "endDateGMT": "2023-12-31 00:00:00",
      "storeId": 195677,
      "storeName": "Never Fully Dressed US",
      "logoImg": "https://gstatic.rewardany.com/web/storelogo/neverfullydressed-com-1700816674.jpg",
      "categories": [
        "Clothing"
      ]
    },
    {
      "couponTitle": "Shop Charity Love and Charities",
      "jumpUrl": "https://www.rewardany.com/store/neverfullydressed-com?couponId=637419&pubId=10427&subId={your tracking code}",
      "type": "sale",
      "couponCode": null,
      "tier": 5,
      "startDateGMT": "2023-01-03 00:00:00",
      "endDateGMT": "2023-12-31 00:00:00",
      "storeId": 195677,
      "storeName": "Never Fully Dressed US",
      "logoImg": "https://gstatic.rewardany.com/web/storelogo/neverfullydressed-com-1700816674.jpg",
      "categories": [
        "Clothing"
      ]
    },
    {
      "couponTitle": "NFD Loyalty Love Rewards",
      "jumpUrl": "https://www.rewardany.com/store/neverfullydressed-com?couponId=637420&pubId=10427&subId={your tracking code}",
      "type": "sale",
      "couponCode": null,
      "tier": 5,
      "startDateGMT": "2023-01-03 00:00:00",
      "endDateGMT": "2023-12-31 00:00:00",
      "storeId": 195677,
      "storeName": "Never Fully Dressed US",
      "logoImg": "https://gstatic.rewardany.com/web/storelogo/neverfullydressed-com-1700816674.jpg",
      "categories": [
        "Clothing"
      ]
    },
    {
      "couponTitle": "28-day returns policy",
      "jumpUrl": "https://www.rewardany.com/store/neverfullydressed-com?couponId=637421&pubId=10427&subId={your tracking code}",
      "type": "sale",
      "couponCode": null,
      "tier": 5,
      "startDateGMT": "2023-01-03 00:00:00",
      "endDateGMT": "2023-12-31 00:00:00",
      "storeId": 195677,
      "storeName": "Never Fully Dressed US",
      "logoImg": "https://gstatic.rewardany.com/web/storelogo/neverfullydressed-com-1700816674.jpg",
      "categories": [
        "Clothing"
      ]
    },
    {
      "couponTitle": "12 Months of Next Day shipping subscriptions for ONLY $\u200c22.00",
      "jumpUrl": "https://www.rewardany.com/store/neverfullydressed-com?couponId=637422&pubId=10427&subId={your tracking code}",
      "type": "sale",
      "couponCode": null,
      "tier": 5,
      "startDateGMT": "2023-01-03 00:00:00",
      "endDateGMT": "2023-12-31 00:00:00",
      "storeId": 195677,
      "storeName": "Never Fully Dressed US",
      "logoImg": "https://gstatic.rewardany.com/web/storelogo/neverfullydressed-com-1700816674.jpg",
      "categories": [
        "Clothing"
      ]
    },
    {
      "couponTitle": "10% off first orders with newsletter sign-ups",
      "jumpUrl": "https://www.rewardany.com/store/neverfullydressed-com?couponId=637423&pubId=10427&subId={your tracking code}",
      "type": "sale",
      "couponCode": null,
      "tier": 5,
      "startDateGMT": "2023-01-03 00:00:00",
      "endDateGMT": "2023-12-31 00:00:00",
      "storeId": 195677,
      "storeName": "Never Fully Dressed US",
      "logoImg": "https://gstatic.rewardany.com/web/storelogo/neverfullydressed-com-1700816674.jpg",
      "categories": [
        "Clothing"
      ]
    },
    {
      "couponTitle": "NEW Petite Collection Now Available at Never Fully Dressed",
      "jumpUrl": "https://www.rewardany.com/store/neverfullydressed-com?couponId=637424&pubId=10427&subId={your tracking code}",
      "type": "sale",
      "couponCode": null,
      "tier": 5,
      "startDateGMT": "2023-04-11 00:00:00",
      "endDateGMT": "2023-12-31 00:00:00",
      "storeId": 195677,
      "storeName": "Never Fully Dressed US",
      "logoImg": "https://gstatic.rewardany.com/web/storelogo/neverfullydressed-com-1700816674.jpg",
      "categories": [
        "Clothing"
      ]
    },
    {
      "couponTitle": "FREE shipping to United States on ALL orders",
      "jumpUrl": "https://www.rewardany.com/store/neverfullydressed-com?couponId=637425&pubId=10427&subId={your tracking code}",
      "type": "sale",
      "couponCode": null,
      "tier": 5,
      "startDateGMT": "2023-08-16 00:00:00",
      "endDateGMT": "2023-12-31 00:00:00",
      "storeId": 195677,
      "storeName": "Never Fully Dressed US",
      "logoImg": "https://gstatic.rewardany.com/web/storelogo/neverfullydressed-com-1700816674.jpg",
      "categories": [
        "Clothing"
      ]
    },
    {
      "couponTitle": "Join Kalencom Baby Now!",
      "jumpUrl": "https://www.rewardany.com/store/kalencombaby-com?couponId=698418&pubId=10427&subId={your tracking code}",
      "type": "sale",
      "couponCode": null,
      "tier": 5,
      "startDateGMT": "2023-11-15 00:00:00",
      "endDateGMT": "2025-01-01 00:00:00",
      "storeId": 201157,
      "storeName": "Kalencom Baby US",
      "logoImg": "https://gstatic.rewardany.com/web/storelogo/kalencombaby-com-1702350089.png",
      "categories": [
        "Baby & Toddler"
      ]
    }
  ]
}